{
    // Managed by Terraform
    "version": "2.0.0",
    "tasks": [
        {
            "label": "verify",
            "type": "shell",
            "command": "mvn -B verify",
            "group": "build"
        },
        {
            "label": "test",
            "type": "shell",
            "command": "mvn -B test",
            "group": "test"
        },
        {
            "label": "run v1",
            "type": "shell",
            "command": "mvn -B spring-boot:run",
            "options": {
                "env": {
                    "SPRING_PROFILES_ACTIVE": "v1",
                    "SPRING_DATASOURCE_PASSWORD": "${v1_datasource_password}"
                },
                "cwd": "$${workspaceFolder}/jdbcplayground"
            },
            "problemMatcher": []
        },
        {
            "label": "run v2",
            "type": "shell",
            "command": "mvn -B spring-boot:run",
            "options": {
                "env": {
                    "SPRING_PROFILES_ACTIVE": "v2",
                    "SPRING_DATASOURCE_PASSWORD": "${v2_datasource_password}",
                    "SPRING_LIQUIBASE_PASSWORD": "${v2_liquibase_password}"
                },
                "cwd": "$${workspaceFolder}/jdbcplayground"
            },
            "problemMatcher": []
        },
        {
            "label": "run v3",
            "type": "shell",
            "command": "mvn -B spring-boot:run",
            "options": {
                "env": {
                    "SPRING_PROFILES_ACTIVE": "v3",
                    "SPRING_DATASOURCE_PASSWORD": "${v3_datasource_password}",
                    "SPRING_LIQUIBASE_PASSWORD": "${v3_liquibase_password}"
                },
                "cwd": "$${workspaceFolder}/jdbcplayground"
            },
            "problemMatcher": []
        },
        {
            "label": "run v4",
            "type": "shell",
            "command": "mvn -B spring-boot:run",
            "options": {
                "env": {
                    "SPRING_PROFILES_ACTIVE": "v4"
                },
                "cwd": "$${workspaceFolder}/jdbcplayground"
            },
            "problemMatcher": []
        }
    ]
}